tb.vcd
$date
	Wed Nov 19 23:59:52 2025
$end
$version
	Icarus Verilog
$end
$timescale
	1ps
$end
$scope module tb $end
$var reg 1 ! clk $end
$var reg 1 " resetb $end
$var reg 1 # rxd $end
$scope module sys1 $end
$var wire 1 $ cclk $end
$var wire 1 ! clk $end
$var wire 1 % fssb $end
$var wire 1 & iocs $end
$var wire 1 ' iramcs $end
$var wire 1 ( irq $end
$var wire 1 ) irqcs $end
$var wire 30 * ivector [31:2] $end
$var wire 1 + miso $end
$var wire 1 , mosi $end
$var wire 1 - reset $end
$var wire 1 # rxd $end
$var wire 1 . sck $end
$var wire 1 / uartcs $end
$var wire 1 0 urd $end
$var wire 1 1 uwrbaud $end
$var wire 1 2 uwrtx $end
$var wire 1 3 vma $end
$var wire 2 4 vecn [1:0] $end
$var wire 8 5 uart_do [7:0] $end
$var wire 1 6 txd $end
$var wire 1 7 trap $end
$var wire 1 8 thre $end
$var wire 1 9 tend $end
$var wire 1 : ove $end
$var wire 4 ; mwe [3:0] $end
$var wire 32 < mdo [31:0] $end
$var wire 2 = irqpen [1:0] $end
$var wire 1 > fe $end
$var wire 1 ? dv $end
$var wire 32 @ cdo [31:0] $end
$var wire 32 A ca [31:0] $end
$var reg 32 B cdi [31:0] $end
$var reg 32 C iodo [31:0] $end
$var reg 2 D irqen [1:0] $end
$var reg 32 E tcount [31:0] $end
$scope module cpu $end
$var wire 1 F LOAD_sign $end
$var wire 30 G PCimm [31:2] $end
$var wire 32 H aluIn2 [31:0] $end
$var wire 32 I aluOut [31:0] $end
$var wire 32 J aluOut_tmp [31:0] $end
$var wire 1 K brk $end
$var wire 1 L brktrap $end
$var wire 1 $ clk $end
$var wire 1 M clken $end
$var wire 1 N csrrw_mepc $end
$var wire 1 O ebreak $end
$var wire 1 P ecall $end
$var wire 1 Q fetch $end
$var wire 1 R ireti $end
$var wire 1 ( irq $end
$var wire 1 S irqack $end
$var wire 1 T irqstart $end
$var wire 1 U issub $end
$var wire 30 V ivector [31:2] $end
$var wire 1 W jump $end
$var wire 1 X left_sh $end
$var wire 1 Y mret $end
$var wire 1 Z opauipc $end
$var wire 1 [ opbranch $end
$var wire 1 \ opdiv $end
$var wire 1 ] opimm $end
$var wire 1 ^ opjal $end
$var wire 1 _ opjalr $end
$var wire 1 ` opload $end
$var wire 1 a oplui $end
$var wire 1 b opmul $end
$var wire 1 c opreg $end
$var wire 1 d opstore $end
$var wire 1 e opsystem $end
$var wire 32 f rdata [31:0] $end
$var wire 32 g regsD [31:0] $end
$var wire 1 h regswr $end
$var wire 1 - reset $end
$var wire 1 i seladd $end
$var wire 1 j signed_sh $end
$var wire 1 7 trap $end
$var wire 1 k usermode $end
$var wire 1 3 vma $end
$var wire 1 l wai $end
$var wire 4 m wstrb [3:0] $end
$var wire 32 n wdata [31:0] $end
$var wire 32 o sh_t5 [31:0] $end
$var wire 32 p sh_t4 [31:0] $end
$var wire 32 q sh_t3 [31:0] $end
$var wire 32 r sh_t2 [31:0] $end
$var wire 32 s sh_t1 [31:0] $end
$var wire 32 t sh_out [31:0] $end
$var wire 32 u sh_in [31:0] $end
$var wire 5 v rs2 [4:0] $end
$var wire 5 w rs1 [4:0] $end
$var wire 32 x regsQ2 [31:0] $end
$var wire 32 y regsQ1 [31:0] $end
$var wire 5 z rd [4:0] $end
$var wire 8 { prlist [7:0] $end
$var wire 1 | predicate $end
$var wire 7 } opcode [6:0] $end
$var wire 32 ~ multout [31:0] $end
$var wire 1 !" mem_halfwordAccess $end
$var wire 1 "" mem_byteAccess $end
$var wire 1 #" mbusy $end
$var wire 32 $" ldstaddr [31:0] $end
$var wire 7 %" funct7 [6:0] $end
$var wire 3 &" funct3 [2:0] $end
$var wire 32 '" divout [31:0] $end
$var wire 1 (" dbusy $end
$var wire 32 )" aluIn1 [31:0] $end
$var wire 33 *" aluAdder [32:0] $end
$var wire 30 +" addr [31:2] $end
$var wire 32 ," Uimm [31:0] $end
$var wire 32 -" Simm [31:0] $end
$var wire 30 ." PCnext [31:2] $end
$var wire 30 /" PCadd2 [31:2] $end
$var wire 30 0" PCadd1 [31:2] $end
$var wire 30 1" PC [31:2] $end
$var wire 1 2" LTU $end
$var wire 1 3" LT $end
$var wire 16 4" LOAD_halfword [15:0] $end
$var wire 32 5" LOAD_data [31:0] $end
$var wire 8 6" LOAD_byte [7:0] $end
$var wire 32 7" Jimm [31:0] $end
$var wire 32 8" Iimm [31:0] $end
$var wire 1 9" EQ $end
$var wire 32 :" Bimm [31:0] $end
$var reg 32 ;" IR [31:0] $end
$var reg 30 <" PCci [31:2] $end
$var reg 30 =" PCreg0 [31:2] $end
$var reg 30 >" PCreg1 [31:2] $end
$var reg 1 ?" mmode $end
$var reg 1 @" obrk $end
$var reg 1 A" ommode $end
$var reg 1 B" opvalid $end
$var reg 1 C" q0 $end
$var integer 32 D" i [31:0] $end
$scope module div0 $end
$var wire 32 E" a [31:0] $end
$var wire 1 F" active $end
$var wire 32 G" b [31:0] $end
$var wire 1 (" busy $end
$var wire 1 $ clk $end
$var wire 1 H" iload $end
$var wire 1 \ load $end
$var wire 1 I" na $end
$var wire 1 J" nb $end
$var wire 1 K" oneg $end
$var wire 1 L" rem $end
$var wire 1 - reset $end
$var wire 1 M" unsig $end
$var wire 32 N" sub [31:0] $end
$var wire 32 O" pout [31:0] $end
$var wire 32 P" out [31:0] $end
$var wire 32 Q" mb [31:0] $end
$var wire 32 R" ma [31:0] $end
$var wire 1 S" cy $end
$var reg 6 T" bct [5:0] $end
$var reg 32 U" oa [31:0] $end
$var reg 32 V" ob [31:0] $end
$var reg 1 W" ous $end
$var reg 32 X" q [31:0] $end
$var reg 32 Y" r [31:0] $end
$upscope $end
$scope module mul0 $end
$var wire 32 Z" a [31:0] $end
$var wire 1 [" a_neg $end
$var wire 1 \" a_neg_one $end
$var wire 1 ]" a_pow2 $end
$var wire 32 ^" b [31:0] $end
$var wire 1 _" b_neg $end
$var wire 1 `" b_neg_one $end
$var wire 1 a" b_pow2 $end
$var wire 1 $ clk $end
$var wire 1 b" hm $end
$var wire 1 b load $end
$var wire 1 - reset $end
$var wire 1 c" ua $end
$var wire 1 d" ub $end
$var wire 32 e" seq_out [31:0] $end
$var wire 1 f" seq_busy $end
$var wire 32 g" out [31:0] $end
$var wire 32 h" fast_low [31:0] $end
$var wire 32 i" fast_high [31:0] $end
$var wire 1 #" busy $end
$var wire 1 j" b_zero $end
$var wire 6 k" b_shift [5:0] $end
$var wire 1 l" b_pos_one $end
$var wire 64 m" b_ext [63:0] $end
$var wire 32 n" b_abs [31:0] $end
$var wire 1 o" a_zero $end
$var wire 6 p" a_shift [5:0] $end
$var wire 1 q" a_pos_one $end
$var wire 64 r" a_ext [63:0] $end
$var wire 32 s" a_abs [31:0] $end
$var reg 1 t" fast_active $end
$var reg 64 u" fast_product_c [63:0] $end
$var reg 64 v" fast_product_r [63:0] $end
$var reg 1 w" fast_valid_c $end
$scope function bit_index32 $end
$upscope $end
$scope module seq_core $end
$var wire 32 x" a [31:0] $end
$var wire 32 y" b [31:0] $end
$var wire 1 f" busy $end
$var wire 1 $ clk $end
$var wire 1 b" hm $end
$var wire 1 z" iload $end
$var wire 1 {" load $end
$var wire 1 - reset $end
$var wire 1 |" sma $end
$var wire 1 c" ua $end
$var wire 1 d" ub $end
$var wire 32 }" out [31:0] $end
$var wire 32 ~" mb [31:0] $end
$var wire 32 !# ma [31:0] $end
$var reg 64 "# acc [63:0] $end
$var reg 32 ## oa [31:0] $end
$var reg 32 $# ob [31:0] $end
$var reg 1 %# oua $end
$var reg 1 &# oub $end
$var reg 32 '# sha [31:0] $end
$var reg 64 (# shb [63:0] $end
$upscope $end
$upscope $end
$upscope $end
$scope module ram0 $end
$var wire 11 )# addr [10:0] $end
$var wire 1 *# clk $end
$var wire 32 +# data_read [31:0] $end
$var wire 32 ,# data_write [31:0] $end
$var wire 1 ' re $end
$var wire 4 -# wrlanes [3:0] $end
$var reg 32 .# data_out [31:0] $end
$upscope $end
$scope module uart0 $end
$var wire 1 $ clk $end
$var wire 16 /# d [15:0] $end
$var wire 1 0# falling $end
$var wire 1 > fe $end
$var wire 8 1# q [7:0] $end
$var wire 1 0 rd $end
$var wire 1 2# resinc $end
$var wire 1 # rxd $end
$var wire 1 9 tend $end
$var wire 1 1 wrbaud $end
$var wire 1 2 wrtx $end
$var wire 1 6 txd $end
$var wire 1 3# shift $end
$var wire 1 4# rxst $end
$var wire 1 5# clko $end
$var wire 1 6# clki0 $end
$var reg 4 7# cbrx [3:0] $end
$var reg 4 8# cntbit [3:0] $end
$var reg 12 9# divider [11:0] $end
$var reg 12 :# divrx [11:0] $end
$var reg 12 ;# divtx [11:0] $end
$var reg 1 ? dv $end
$var reg 1 : ove $end
$var reg 8 <# rbr [7:0] $end
$var reg 1 =# rdy $end
$var reg 2 ># rrxd [1:0] $end
$var reg 1 ?# rxst0 $end
$var reg 9 @# shrx [8:0] $end
$var reg 9 A# shtx [8:0] $end
$var reg 1 B# stopb $end
$var reg 8 C# thr [7:0] $end
$var reg 1 8 thre $end
$upscope $end
$upscope $end
$upscope $end
$enddefinitions $end
#0
$dumpvars
bx C#
xB#
b111111111 A#
bx @#
x?#
b0 >#
1=#
bx <#
b0 ;#
b0 :#
b0 9#
bx 8#
b1111 7#
16#
15#
14#
13#
02#
bx 1#
00#
b0 /#
bx .#
b0 -#
b0 ,#
bx +#
1*#
b0 )#
bx (#
b0 '#
0&#
0%#
b0 $#
b0 ##
b0 "#
b0 !#
b0 ~"
b0 }"
0|"
0{"
0z"
b0 y"
b0 x"
1w"
b0 v"
b0 u"
0t"
b0 s"
b0 r"
0q"
b0 p"
1o"
b0 n"
b0 m"
0l"
b0 k"
1j"
b0 i"
b0 h"
b0 g"
0f"
b0 e"
xd"
xc"
xb"
0a"
0`"
0_"
b0 ^"
0]"
0\"
0["
b0 Z"
bx Y"
bx X"
0W"
b0 V"
b0 U"
b0 T"
xS"
b0 R"
b0 Q"
bx P"
bx O"
bx N"
xM"
xL"
0K"
0J"
0I"
0H"
b0 G"
1F"
b0 E"
b10000 D"
0C"
0B"
0A"
0@"
0?"
bx >"
b0 ="
bx <"
bx ;"
bx0 :"
19"
bx 8"
bx0 7"
bx 6"
bx 5"
bx 4"
03"
02"
b0 1"
b1 0"
bx /"
b1 ."
bx -"
bx000000000000 ,"
b0 +"
b0 *"
b0 )"
1("
bx '"
bx &"
bx %"
bx $"
0#"
x""
x!"
b0 ~
bx }
x|
b10100001 {
b0 z
b0 y
b0 x
b0 w
b0 v
b0 u
b0 t
b0 s
b0 r
b0 q
b0 p
b0 o
b0 n
b0 m
0l
1k
0j
xi
0h
b0 g
bx f
0e
0d
0c
0b
0a
0`
0_
0^
0]
0\
0[
0Z
0Y
0X
0W
bx V
0U
0T
0S
0R
1Q
0P
0O
0N
0M
0L
0K
b0 J
b0 I
b0 H
b0 G
xF
b0 E
b0 D
bx C
bx B
b0 A
b0 @
0?
x>
b0 =
bx <
b0 ;
0:
19
18
07
16
bx 5
bx 4
03
02
01
00
0/
z.
1-
z,
z+
bx *
0)
0(
0'
0&
z%
0$
1#
0"
0!
$end
#5000
12#
bx0 (#
b1 >#
1?#
b1 E
0*#
1$
1!
#10000
1*#
0$
0!
#15000
02#
b11 >#
bx00 (#
b10 E
0*#
1$
1!
#20000
1*#
0$
0!
#25000
bx000 (#
b11 E
0*#
1$
1!
#30000
1*#
0$
0!
#35000
bx0000 (#
b100 E
0*#
1$
1!
#40000
1*#
0$
0!
#45000
bx00000 (#
b101 E
0*#
1$
1!
#50000
1*#
0$
0!
#55000
bx000000 (#
b110 E
0*#
1$
1!
#60000
1*#
0$
0!
#65000
bx0000000 (#
b111 E
0*#
1$
1!
#70000
1*#
0$
0!
#75000
bx00000000 (#
b1000 E
0*#
1$
1!
#77000
0-
1"
#80000
1*#
0$
0!
#85000
b1 T"
bx000000000 (#
b1001 E
0*#
1$
1!
#90000
1*#
0$
0!
#95000
b10 T"
bx0000000000 (#
b1010 E
0*#
1$
1!
#100000
1*#
0$
0!
#105000
b11 T"
bx00000000000 (#
b1011 E
0*#
1$
1!
#110000
1*#
0$
0!
#115000
b100 T"
bx000000000000 (#
b1100 E
0*#
1$
1!
#120000
1*#
0$
0!
#125000
b101 T"
bx0000000000000 (#
b1101 E
0*#
1$
1!
#130000
1*#
0$
0!
#135000
b110 T"
bx00000000000000 (#
b1110 E
0*#
1$
1!
#140000
1*#
0$
0!
#145000
b111 T"
bx000000000000000 (#
b1111 E
0*#
1$
1!
#150000
1*#
0$
0!
#155000
b1000 T"
bx0000000000000000 (#
b10000 E
0*#
1$
1!
#160000
1*#
0$
0!
#165000
b1001 T"
bx00000000000000000 (#
b10001 E
0*#
1$
1!
#170000
1*#
0$
0!
#175000
b1010 T"
bx000000000000000000 (#
b10010 E
0*#
1$
1!
#180000
1*#
0$
0!
#185000
b1011 T"
bx0000000000000000000 (#
b10011 E
0*#
1$
1!
#190000
1*#
0$
0!
#195000
b1100 T"
bx00000000000000000000 (#
b10100 E
0*#
1$
1!
#200000
1*#
0$
0!
#205000
b1101 T"
bx000000000000000000000 (#
b10101 E
0*#
1$
1!
#210000
1*#
0$
0!
#215000
b1110 T"
bx0000000000000000000000 (#
b10110 E
0*#
1$
1!
#220000
1*#
0$
0!
#225000
b1111 T"
bx00000000000000000000000 (#
b10111 E
0*#
1$
1!
#230000
1*#
0$
0!
#235000
b10000 T"
bx000000000000000000000000 (#
b11000 E
0*#
1$
1!
#240000
1*#
0$
0!
#245000
b10001 T"
bx0000000000000000000000000 (#
b11001 E
0*#
1$
1!
#250000
1*#
0$
0!
#255000
b10010 T"
bx00000000000000000000000000 (#
b11010 E
0*#
1$
1!
#260000
1*#
0$
0!
#265000
b10011 T"
bx000000000000000000000000000 (#
b11011 E
0*#
1$
1!
#270000
1*#
0$
0!
#275000
b10100 T"
bx0000000000000000000000000000 (#
b11100 E
0*#
1$
1!
#280000
1*#
0$
0!
#285000
b10101 T"
bx00000000000000000000000000000 (#
b11101 E
0*#
1$
1!
#290000
1*#
0$
0!
#295000
b10110 T"
bx000000000000000000000000000000 (#
b11110 E
0*#
1$
1!
#300000
1*#
0$
0!
#305000
b10111 T"
bx0000000000000000000000000000000 (#
b11111 E
0*#
1$
1!
#310000
1*#
0$
0!
#315000
b11000 T"
bx00000000000000000000000000000000 (#
b100000 E
0*#
1$
1!
#320000
1*#
0$
0!
#325000
b11001 T"
bx000000000000000000000000000000000 (#
b100001 E
0*#
1$
1!
#330000
1*#
0$
0!
#335000
b11010 T"
bx0000000000000000000000000000000000 (#
b100010 E
0*#
1$
1!
#340000
1*#
0$
0!
#345000
b11011 T"
bx00000000000000000000000000000000000 (#
b100011 E
0*#
1$
1!
#350000
1*#
0$
0!
#355000
b11100 T"
bx000000000000000000000000000000000000 (#
b100100 E
0*#
1$
1!
#360000
1*#
0$
0!
#365000
b11101 T"
bx0000000000000000000000000000000000000 (#
b100101 E
0*#
1$
1!
#370000
1*#
0$
0!
#375000
b11110 T"
bx00000000000000000000000000000000000000 (#
b100110 E
0*#
1$
1!
#380000
1*#
0$
0!
#385000
b11111 T"
bx000000000000000000000000000000000000000 (#
b100111 E
0*#
1$
1!
#390000
1*#
0$
0!
#395000
1'
13
1M
0("
0F"
b100000 T"
bx0000000000000000000000000000000000000000 (#
b101000 E
0*#
1$
1!
#400000
0F
b0x0000000000000001101111 5"
b1101111 6"
b1101111 4"
b10000000000000001101111 B
b10000000000000001101111 f
b10000000000000001101111 <
b10000000000000001101111 +#
b10000000000000001101111 .#
1*#
0$
0!
#405000
xF
bx 6"
bx 4"
bx B
bx f
bx0x110 C
0'
03
1h
b100 g
b1 ."
b1 )#
1W
b1 G
1i
bx 5"
b100 A
b1 +"
0c"
0d"
0b"
0M"
0L"
1""
0!"
b0 $"
b10 0"
b1 1"
b100 v
1^
b1101111 }
1|
b0 &"
b0 %"
b10000000000000000000000 ,"
b100 8"
b0 -"
b0 :"
b100 7"
b1 ="
1B"
bx00000000000000000000000000000000000000000 (#
b10000000000000001101111 ;"
b1 /"
b0 <"
b101001 E
0*#
1$
1!
#410000
1*#
0$
0!
#415000
0F
b0x0000000000000001101111 5"
b1101111 6"
b1101111 4"
b10000000000000001101111 B
b10000000000000001101111 f
1'
13
0h
b0 g
0W
b0 G
xi
b10 ."
xc"
xd"
xb"
xM"
xL"
x""
x!"
bx $"
b0 v
0^
bx }
x|
bx &"
bx %"
bx000000000000 ,"
bx 8"
bx -"
bx0 :"
bx0 7"
0B"
b1 /"
b1 <"
bx ;"
bx000000000000000000000000000000000000000000 (#
b101010 E
0*#
1$
1!
#420000
b110111 6"
b0x0000x00110111 5"
b10000100110111 4"
b10000100110111 B
b10000100110111 f
b10000100110111 <
b10000100110111 +#
b10000100110111 .#
1*#
0$
0!
#425000
bx C
b10000000000000 g
b10000000000000 I
b10000000000000 J
b10100010 {
09"
1]"
b1101 p"
b10000000000000 *"
b10000000000000 Q"
b10000000000000 r"
b10000000000000 s"
1w"
b10000000000000 !#
1h
0o"
b10000000000000 H
b10000000000000 G"
b10000000000000 Z"
b10000000000000 x"
b11 ."
b10 )#
1i
b10000100110111 5"
b1000 A
b10 +"
1c"
0d"
1b"
0M"
1L"
0""
0!"
b10 $"
b11 0"
b10 1"
b10 z
1a
b110111 }
0|
b10 &"
b0 %"
b10000000000000 ,"
b0 8"
b10 -"
b10 :"
b10000000000000 7"
b10 ="
1B"
bx0000000000000000000000000000000000000000000 (#
b10000100110111 ;"
b101011 E
0*#
1$
1!
#430000
b10111 6"
b10010100010111 5"
b10010100010111 4"
b10010100010111 B
b10010100010111 f
b10010100010111 <
b10010100010111 +#
b10010100010111 .#
1*#
0$
0!
#435000
bx0x110 C
b10000000001000 g
b10000000001000 I
b10000000001000 J
b1000 t
b1000 o
b1000 p
b1000 q
b1000 r
b1000 s
b10000000000000000 u"
1a"
b11 k"
b1000 u
b1000 R"
b1000 m"
b1000 n"
1w"
b1000 ~"
b100 ."
b11 )#
b10000000001000 *"
0j"
b1000 )"
b1000 E"
b1000 ^"
b1000 y"
b1100 A
b11 +"
0a
1Z
b1010 z
b1010 $"
b100 0"
b11 1"
b10111 }
b1010 -"
b1010 :"
b11 ="
b10 /"
b10 <"
b10010100010111 ;"
bx00000000000000000000000000000000000000000000 (#
b101100 E
0*#
1$
1!
#440000
b10011 6"
b10111111100001010000010100010011 5"
b10100010011 4"
b10111111100001010000010100010011 B
b10111111100001010000010100010011 f
b10111111100001010000010100010011 <
b10111111100001010000010100010011 +#
b10111111100001010000010100010011 .#
1*#
0$
0!
#445000
bx C
b1110000000000 I
b1100010 {
12"
b1110000000000 J
b0 t
b1110000000000 g
b0 o
b0 p
b1101 k"
0]"
b0 q
0o"
1J"
b1010 p"
b0 r
0a"
1h
0j"
1["
1|"
b10000000001000 y
b10000001000 Q"
b10000001000 s"
b10000001000 !#
b0 s
b0 u"
0w"
b101 ."
b100 )#
b1111111111111111111111111111111111111111111111111111101111111000 r"
b10011 5"
b11111111111111111111101111111000 H
b11111111111111111111101111111000 G"
b11111111111111111111101111111000 Z"
b11111111111111111111101111111000 x"
b10000000001000 u
b10000000001000 R"
b10000000001000 m"
b10000000001000 n"
b11111111111111111101111111111000 ~"
b10000 A
b100 +"
1]
0Z
0c"
0b"
0L"
1""
b1010 w
b11000 v
b1101111110010 $"
b100000000000000000001110000000000 *"
b10000000001000 )"
b10000000001000 E"
b10000000001000 ^"
b10000000001000 y"
b101 0"
b100 1"
b10011 }
b0 &"
b1011111 %"
b10111111100001010000000000000000 ,"
b11111111111111111111101111111000 8"
b11111111111111111111101111101010 -"
b11111111111111111111001111101010 :"
b11111111111101010000001111111000 7"
b100 ="
bx000000000000000000000000000000000000000000000 (#
b10111111100001010000010100010011 ;"
b11 /"
b11 <"
b101101 E
0*#
1$
1!
#450000
1F
b11111111111111111111111110010111 5"
b10010111 6"
b1010110010111 4"
b1010110010111 B
b1010110010111 f
b1010110010111 <
b1010110010111 +#
b1010110010111 .#
1*#
0$
0!
#455000
bx0x110 C
b1000000010000 g
b1000000010000 I
b10000 t
b1000000010000 J
b10000 o
b10000 p
1]"
b10000 q
b1100 p"
b10000000000000000 u"
1w"
1a"
b10000 r
b1000000000000 s"
0["
b1000000000000 !#
0|"
b1000000000000 r"
b10100010 {
02"
b10000 s
b1000000000000 H
b1000000000000 G"
b1000000000000 Z"
b1000000000000 x"
b100 k"
b10000 ~"
b1000000000000 Q"
0J"
0F
b10000 R"
b10000 m"
b10000 n"
b110 ."
b101 )#
b10000 u
b1010110010111 5"
b1000000010000 *"
b10000 )"
b10000 E"
b10000 ^"
b10000 y"
b10100 A
b101 +"
0]
1Z
0X
1b"
1M"
0""
1!"
b1011 z
b0 w
b0 v
b110 0"
b101 1"
b10111 }
1|
b1 &"
b0 %"
b1000000000000 ,"
b0 8"
b1011 -"
b100000001010 :"
b1000000000000 7"
b1011 $"
b0 y
b101 ="
b100 /"
b100 <"
b1010110010111 ;"
bx0000000000000000000000000000000000000000000000 (#
b101110 E
0*#
1$
1!
#460000
1F
b10010011 6"
b11111111111111111000010110010011 5"
b1000010110010011 4"
b11101100110001011000010110010011 B
b11101100110001011000010110010011 f
b11101100110001011000010110010011 <
b11101100110001011000010110010011 +#
b11101100110001011000010110010011 .#
1*#
0$
0!
#465000
bx C
b111011011100 I
b1100010 {
12"
b111011011100 J
b1 t
b111011011100 g
b1 o
b1 p
b1100 k"
0]"
b1 q
0o"
b1000 p"
1["
1|"
b10000 r
0a"
1h
0j"
1J"
b1000000010000 y
b100110100 Q"
b1111111111111111111111111111111111111111111111111111111011001100 r"
b100110100 s"
b100110100 !#
b1000000010000 s
b0 u"
0w"
b111 ."
b110 )#
b11111111111111111111111110010011 5"
b11111111111111111111111011001100 H
b11111111111111111111111011001100 G"
b11111111111111111111111011001100 Z"
b11111111111111111111111011001100 x"
b1000000010000 u
b1000000010000 R"
b1000000010000 m"
b1000000010000 n"
b11111111111111111110111111110000 ~"
b11000 A
b110 +"
1]
0Z
0b"
0M"
1""
0!"
b1011 w
b1100 v
b111011011011 $"
b100000000000000000000111011011100 *"
b1000000010000 )"
b1000000010000 E"
b1000000010000 ^"
b1000000010000 y"
b111 0"
b110 1"
b10011 }
0|
b0 &"
b1110110 %"
b11101100110001011000000000000000 ,"
b11111111111111111111111011001100 8"
b11111111111111111111111011001011 -"
b11111111111111111111111011001010 :"
b11111111111101011000011011001100 7"
b110 ="
bx00000000000000000000000000000000000000000000000 (#
b11101100110001011000010110010011 ;"
b101 /"
b101 <"
b101111 E
0*#
1$
1!
#470000
0F
b10111 5"
b10111 6"
b10011000010111 4"
b10011000010111 B
b10011000010111 f
b10011000010111 <
b10011000010111 +#
b10011000010111 .#
1*#
0$
0!
#475000
bx0x110 C
b10000000011000 g
b10000000011000 I
b10000000011000 J
b11000 t
b11000 o
b110000000000000000 u"
1w"
b11000 p
1]"
b11000 q
b10000000000000 Q"
0J"
b11000 r
b1101 p"
b10100010 {
02"
b10000000000000 s"
b10000000000000 H
b10000000000000 G"
b10000000000000 Z"
b10000000000000 x"
b11000 s
b100 k"
0["
b10000000000000 !#
b11000 ~"
0|"
b11000 u
b11000 R"
b11000 m"
b11000 n"
b1000 ."
b111 )#
b10000000000000 r"
b10011000010111 5"
b10000000011000 *"
b11000 )"
b11000 E"
b11000 ^"
b11000 y"
b11100 A
b111 +"
0]
1Z
1c"
1b"
1L"
0""
b1100 z
b0 w
b0 v
b1000 0"
b111 1"
b10111 }
b10 &"
b0 %"
b10000000000000 ,"
b0 8"
b1100 -"
b1100 :"
b10000000000000 7"
b1100 $"
b0 y
b111 ="
b110 /"
b110 <"
b10011000010111 ;"
bx000000000000000000000000000000000000000000000000 (#
b110000 E
0*#
1$
1!
#480000
b10011 6"
b10111110110001100000011000010011 5"
b11000010011 4"
b10111110110001100000011000010011 B
b10111110110001100000011000010011 f
b10111110110001100000011000010011 <
b10111110110001100000011000010011 +#
b10111110110001100000011000010011 .#
1*#
0$
0!
#485000
bx C
b1110000000100 I
b1100010 {
12"
b1110000000100 J
b10 t
b1110000000100 g
b10 o
b10 p
b1101 k"
b10000000011000 /#
0]"
b10 q
0o"
b10000000011000 @
b10000000011000 n
b10000000011000 ,#
1J"
b1010 p"
b100000 r
1h
0j"
1["
1|"
b10000000011000 y
b10000000011000 x
b10000010100 Q"
b10000010100 s"
b10000010100 !#
b10000000011000 s
b0 u"
0w"
b1001 ."
b1000 )#
b1111111111111111111111111111111111111111111111111111101111101100 r"
b10011 5"
b11111111111111111111101111101100 H
b11111111111111111111101111101100 G"
b11111111111111111111101111101100 Z"
b11111111111111111111101111101100 x"
b10000000011000 u
b10000000011000 R"
b10000000011000 m"
b10000000011000 n"
b11111111111111111101111111101000 ~"
b100000 A
b1000 +"
1]
0Z
0c"
0b"
0L"
1""
b1100 w
b1100 v
b1110000000100 $"
b100000000000000000001110000000100 *"
b10000000011000 )"
b10000000011000 E"
b10000000011000 ^"
b10000000011000 y"
b1001 0"
b1000 1"
b10011 }
b0 &"
b1011111 %"
b10111110110001100000000000000000 ,"
b11111111111111111111101111101100 8"
b11111111111111111111101111101100 -"
b11111111111111111111001111101100 :"
b11111111111101100000001111101100 7"
b1000 ="
bx0000000000000000000000000000000000000000000000000 (#
b10111110110001100000011000010011 ;"
b111 /"
b111 <"
b110001 E
0*#
1$
1!
#490000
b1100011 5"
b1100011 6"
b101110001100011 4"
b110001010101110001100011 B
b110001010101110001100011 f
b110001010101110001100011 <
b110001010101110001100011 +#
b110001010101110001100011 .#
1*#
0$
0!
#495000
b110001010101110001100011 B
b110001010101110001100011 f
b111000000 t
b111000000 o
b111000000 p
0h
b0 g
1'
b111000000 I
b111000000 q
13
13"
b1100 p"
b111000000 J
b1110000000100 s"
0["
b1110000000100 !#
0|"
b1110000000000 r
b1110000000100 r"
b1100011 6"
b0 G
b1110000000100 H
b1110000000100 G"
b1110000000100 Z"
b1110000000100 x"
b1110000000000 s
b1100 k"
b1110000000000 ~"
0W
b1010010 {
12"
b1110000000100 Q"
0J"
b1110000000000 u
b1110000000000 R"
b1110000000000 m"
b1110000000000 n"
b1010 ."
b1001 )#
1U
0i
b101110001100011 5"
b111111111111111111111111111111100 *"
b1110000000000 )"
b1110000000000 E"
b1110000000000 ^"
b1110000000000 y"
b1110000000100 /#
b100100 A
b1001 +"
0]
1[
1b"
1M"
0""
1!"
b11000 z
b1010 w
b1110000000100 @
b1110000000100 n
b1110000000100 ,#
b1010 0"
b1001 1"
b1100011 }
0|
b101 &"
b0 %"
b110001010101000000000000 ,"
b1100 8"
b11000 -"
b11000 :"
b1010101000000001100 7"
b1110000011000 $"
b1110000000000 y
b1110000000100 x
b1001 ="
b1000 /"
b1000 <"
b110001010101110001100011 ;"
bx00000000000000000000000000000000000000000000000000 (#
b110010 E
0*#
1$
1!
#500000
b10000011 6"
b1010011010000011 5"
b1010011010000011 4"
b1011010011010000011 B
b1011010011010000011 f
b1011010011010000011 <
b1011010011010000011 +#
b1011010011010000011 .#
1*#
0$
0!
#505000
b111011011100 t
b111011011100 o
b111011011100 p
b111011011100 q
b0 p"
b111011011100 r
1h
b0 Q"
b0 r"
b0 s"
b0 !#
b111011011100 s
1w"
b1011 k"
1o"
b0 H
b0 G"
b0 Z"
b0 x"
b0 I
b111011011100 u
b111011011100 R"
b111011011100 m"
b111011011100 n"
b111011011100 ~"
b1011010011010000011 g
b111011011100 )"
b111011011100 E"
b111011011100 ^"
b111011011100 y"
b0 /#
03"
b1010011010000011 4"
b10000011 6"
b0 J
b0 @
b0 n
b0 ,#
0Q
b10100010 {
02"
b1011010011010000011 5"
b111011011100 y
b0 x
b1010 ."
b1110110111 )#
b111011011100 *"
0U
1F
b111011011100 A
b1110110111 +"
1`
0[
1c"
0M"
1L"
0!"
b1101 z
b1011 w
b0 v
b111011011100 $"
b1010 0"
b1010 1"
b11 }
b10 &"
b1011010000000000000 ,"
b0 8"
b1101 -"
b100000001100 :"
b1011010000000000000 7"
b1010 ="
bx000000000000000000000000000000000000000000000000000 (#
b1011010011010000011 ;"
b1001 /"
b1001 <"
b110011 E
0*#
1$
1!
#510000
b100000 g
0F
b100000 6"
b100000 5"
b100000 4"
b100000 B
b100000 f
b100000 <
b100000 +#
b100000 .#
1*#
0$
0!
#515000
b0 t
b0 I
b0 o
b0 p
b0 J
b0 q
b0 r
b0 s
b0 k"
0h
1|
b10100001 {
19"
b0 u
b0 R"
b0 m"
b0 n"
1w"
b0 ~"
b1011 ."
b0 *"
1j"
b0 )"
b0 E"
b0 ^"
b0 y"
b0 g
b1010 )#
b1011 0"
b0 $"
b0 y
1Q
b101000 A
b1010 +"
1i
0c"
0b"
0L"
1""
b0 z
b0 w
0`
b100000 }
b0 &"
b0 ,"
b0 -"
b0 :"
b0 7"
0B"
b1010 /"
b1010 <"
b100000 ;"
bx0000000000000000000000000000000000000000000000000000 (#
b110100 E
0*#
1$
1!
#520000
b100011 5"
b100011 6"
b10000000100011 4"
b110101010010000000100011 B
b110101010010000000100011 f
b110101010010000000100011 <
b110101010010000000100011 +#
b110101010010000000100011 .#
1*#
0$
0!
